/data2/image_attributes/data/myntra_data/dresses/dresses_images/1994159.jpg,Midi,0.603417277336,Maxi
/data2/image_attributes/data/myntra_data/dresses/dresses_images/1951446.jpg,Maxi,0.69714820385,Maxi
/data2/image_attributes/data/myntra_data/dresses/dresses_images/1710417.jpg,Midi,0.560393095016,Maxi
/data2/image_attributes/data/myntra_data/dresses/dresses_images/1103173.jpg,Midi,0.736597299576,Maxi
/data2/image_attributes/data/myntra_data/dresses/dresses_images/397721.jpg,Maxi,0.483047455549,Maxi
/data2/image_attributes/data/myntra_data/dresses/dresses_images/663516.jpg,Knee Length,0.426411092281,Maxi
/data2/image_attributes/data/myntra_data/dresses/dresses_images/955968.jpg,Midi,0.57761323452,Maxi
/data2/image_attributes/data/myntra_data/dresses/dresses_images/2303507.jpg,Knee Length,0.471684753895,Maxi
/data2/image_attributes/data/myntra_data/dresses/dresses_images/1049533.jpg,Maxi,0.66087692976,Maxi
/data2/image_attributes/data/myntra_data/dresses/dresses_images/1942992.jpg,Maxi,0.67108631134,Maxi
/data2/image_attributes/data/myntra_data/dresses/dresses_images/1833897.jpg,Knee Length,0.460610985756,Maxi
/data2/image_attributes/data/myntra_data/dresses/dresses_images/2370704.jpg,Midi,0.642060279846,Maxi
/data2/image_attributes/data/myntra_data/dresses/dresses_images/1975734.jpg,Maxi,0.371860861778,Maxi
/data2/image_attributes/data/myntra_data/dresses/dresses_images/2266163.jpg,Maxi,0.56655228138,Maxi
/data2/image_attributes/data/myntra_data/dresses/dresses_images/1829461.jpg,Maxi,0.78319466114,Maxi
/data2/image_attributes/data/myntra_data/dresses/dresses_images/2250742.jpg,Maxi,0.521887540817,Maxi
/data2/image_attributes/data/myntra_data/dresses/dresses_images/1291444.jpg,Midi,0.641189575195,Maxi
/data2/image_attributes/data/myntra_data/dresses/dresses_images/1043802.jpg,Maxi,0.785695314407,Maxi
/data2/image_attributes/data/myntra_data/dresses/dresses_images/2250768.jpg,Maxi,0.504228532314,Maxi
/data2/image_attributes/data/myntra_data/dresses/dresses_images/1374051.jpg,Midi,0.735970020294,Maxi
/data2/image_attributes/data/myntra_data/dresses/dresses_images/551316.jpg,Above Knee,0.607974886894,Maxi
/data2/image_attributes/data/myntra_data/dresses/dresses_images/676808.jpg,Maxi,0.748360276222,Maxi
/data2/image_attributes/data/myntra_data/dresses/dresses_images/1420506.jpg,Maxi,0.642351150513,Maxi
/data2/image_attributes/data/myntra_data/dresses/dresses_images/575802.jpg,Maxi,0.745456337929,Maxi
/data2/image_attributes/data/myntra_data/dresses/dresses_images/1580411.jpg,Above Knee,0.585586845875,Maxi
/data2/image_attributes/data/myntra_data/dresses/dresses_images/2098772.jpg,Maxi,0.639536619186,Maxi
/data2/image_attributes/data/myntra_data/dresses/dresses_images/1755952.jpg,Knee Length,0.794921398163,Maxi
/data2/image_attributes/data/myntra_data/dresses/dresses_images/1153452.jpg,Knee Length,0.368756532669,Maxi
/data2/image_attributes/data/myntra_data/dresses/dresses_images/1628609.jpg,Midi,0.69876408577,Maxi
/data2/image_attributes/data/myntra_data/dresses/dresses_images/2285320.jpg,Maxi,0.377196013927,Maxi
/data2/image_attributes/data/myntra_data/dresses/dresses_images/1071624.jpg,Above Knee,0.622899115086,Maxi
/data2/image_attributes/data/myntra_data/dresses/dresses_images/1406871.jpg,Midi,0.526875376701,Maxi
/data2/image_attributes/data/myntra_data/dresses/dresses_images/1193361.jpg,Knee Length,0.52756601572,Maxi
/data2/image_attributes/data/myntra_data/dresses/dresses_images/1976755.jpg,Knee Length,0.759977161884,Maxi
/data2/image_attributes/data/myntra_data/dresses/dresses_images/719114.jpg,Knee Length,0.790441811085,Maxi
/data2/image_attributes/data/myntra_data/dresses/dresses_images/1377044.jpg,Maxi,0.769919991493,Maxi
/data2/image_attributes/data/myntra_data/dresses/dresses_images/1991997.jpg,Above Knee,0.58194488287,Maxi
/data2/image_attributes/data/myntra_data/dresses/dresses_images/975360.jpg,Maxi,0.718980550766,Maxi
/data2/image_attributes/data/myntra_data/dresses/dresses_images/309904.jpg,Maxi,0.599657177925,Maxi
/data2/image_attributes/data/myntra_data/dresses/dresses_images/2311107.jpg,Above Knee,0.638146996498,Maxi
/data2/image_attributes/data/myntra_data/dresses/dresses_images/1699622.jpg,Midi,0.36231341958,Maxi
/data2/image_attributes/data/myntra_data/dresses/dresses_images/1975567.jpg,Maxi,0.73881816864,Maxi
/data2/image_attributes/data/myntra_data/dresses/dresses_images/427374.jpg,Maxi,0.56850206852,Maxi
/data2/image_attributes/data/myntra_data/dresses/dresses_images/2243115.jpg,Above Knee,0.503075182438,Maxi
/data2/image_attributes/data/myntra_data/dresses/dresses_images/719115.jpg,Maxi,0.727966189384,Maxi
/data2/image_attributes/data/myntra_data/dresses/dresses_images/1144172.jpg,Maxi,0.540598154068,Maxi
/data2/image_attributes/data/myntra_data/dresses/dresses_images/1049142.jpg,Above Knee,0.746307253838,Maxi
/data2/image_attributes/data/myntra_data/dresses/dresses_images/1950482.jpg,Above Knee,0.188078194857,Maxi
/data2/image_attributes/data/myntra_data/dresses/dresses_images/1795635.jpg,Maxi,0.510088086128,Maxi
/data2/image_attributes/data/myntra_data/dresses/dresses_images/254399.jpg,Knee Length,0.59319871664,Maxi
/data2/image_attributes/data/myntra_data/dresses/dresses_images/1261492.jpg,Knee Length,0.654644787312,Maxi
/data2/image_attributes/data/myntra_data/dresses/dresses_images/2031899.jpg,Midi,0.732761979103,Maxi
/data2/image_attributes/data/myntra_data/dresses/dresses_images/1102997.jpg,Midi,0.795983195305,Maxi
/data2/image_attributes/data/myntra_data/dresses/dresses_images/1728050.jpg,Midi,0.730361104012,Maxi
/data2/image_attributes/data/myntra_data/dresses/dresses_images/1951464.jpg,Knee Length,0.511379420757,Maxi
/data2/image_attributes/data/myntra_data/dresses/dresses_images/830225.jpg,Knee Length,0.748130917549,Maxi
/data2/image_attributes/data/myntra_data/dresses/dresses_images/2299710.jpg,Maxi,0.628540635109,Maxi
/data2/image_attributes/data/myntra_data/dresses/dresses_images/726432.jpg,Maxi,0.768536567688,Maxi
/data2/image_attributes/data/myntra_data/dresses/dresses_images/2266196.jpg,Maxi,0.525109529495,Maxi
/data2/image_attributes/data/myntra_data/dresses/dresses_images/1833879.jpg,Maxi,0.44931268692,Maxi
/data2/image_attributes/data/myntra_data/dresses/dresses_images/1579038.jpg,Above Knee,0.164713859558,Maxi
/data2/image_attributes/data/myntra_data/dresses/dresses_images/1621202.jpg,Knee Length,0.383960962296,Maxi
/data2/image_attributes/data/myntra_data/dresses/dresses_images/1777155.jpg,Midi,0.637470126152,Maxi
/data2/image_attributes/data/myntra_data/dresses/dresses_images/1987110.jpg,Above Knee,0.543090701103,Maxi
/data2/image_attributes/data/myntra_data/dresses/dresses_images/1688849.jpg,Midi,0.762764692307,Maxi
/data2/image_attributes/data/myntra_data/dresses/dresses_images/1591471.jpg,Above Knee,0.723598837852,Maxi
/data2/image_attributes/data/myntra_data/dresses/dresses_images/535412.jpg,Knee Length,0.599114596844,Maxi
/data2/image_attributes/data/myntra_data/dresses/dresses_images/1805059.jpg,Midi,0.759232759476,Above Knee
/data2/image_attributes/data/myntra_data/dresses/dresses_images/2118531.jpg,Midi,0.414625495672,Above Knee
/data2/image_attributes/data/myntra_data/dresses/dresses_images/2321724.jpg,Above Knee,0.421927660704,Above Knee
/data2/image_attributes/data/myntra_data/dresses/dresses_images/2200207.jpg,Above Knee,0.666843235493,Above Knee
/data2/image_attributes/data/myntra_data/dresses/dresses_images/936117.jpg,Knee Length,0.793812394142,Above Knee
/data2/image_attributes/data/myntra_data/dresses/dresses_images/1948411.jpg,Maxi,0.431848049164,Above Knee
/data2/image_attributes/data/myntra_data/dresses/dresses_images/191156.jpg,Maxi,0.795118331909,Above Knee
/data2/image_attributes/data/myntra_data/dresses/dresses_images/453446.jpg,Knee Length,0.47966080904,Above Knee
/data2/image_attributes/data/myntra_data/dresses/dresses_images/534786.jpg,Knee Length,0.538932263851,Above Knee
/data2/image_attributes/data/myntra_data/dresses/dresses_images/1118205.jpg,Knee Length,0.501623988152,Above Knee
/data2/image_attributes/data/myntra_data/dresses/dresses_images/542796.jpg,Knee Length,0.595522403717,Above Knee
/data2/image_attributes/data/myntra_data/dresses/dresses_images/2342626.jpg,Maxi,0.631978452206,Above Knee
/data2/image_attributes/data/myntra_data/dresses/dresses_images/2321414.jpg,Knee Length,0.681069791317,Above Knee
/data2/image_attributes/data/myntra_data/dresses/dresses_images/2321723.jpg,Above Knee,0.757457017899,Above Knee
/data2/image_attributes/data/myntra_data/dresses/dresses_images/2250770.jpg,Knee Length,0.385498821735,Above Knee
/data2/image_attributes/data/myntra_data/dresses/dresses_images/625635.jpg,Knee Length,0.690245866776,Above Knee
/data2/image_attributes/data/myntra_data/dresses/dresses_images/400006.jpg,Knee Length,0.767196655273,Above Knee
/data2/image_attributes/data/myntra_data/dresses/dresses_images/1504323.jpg,Knee Length,0.557614326477,Above Knee
/data2/image_attributes/data/myntra_data/dresses/dresses_images/1858875.jpg,Maxi,0.640992045403,Above Knee
/data2/image_attributes/data/myntra_data/dresses/dresses_images/2098986.jpg,Maxi,0.704927802086,Above Knee
/data2/image_attributes/data/myntra_data/dresses/dresses_images/2217933.jpg,Above Knee,0.402304649353,Above Knee
/data2/image_attributes/data/myntra_data/dresses/dresses_images/320656.jpg,Maxi,0.661213755608,Above Knee
/data2/image_attributes/data/myntra_data/dresses/dresses_images/320657.jpg,Knee Length,0.625151216984,Above Knee
/data2/image_attributes/data/myntra_data/dresses/dresses_images/794300.jpg,Knee Length,0.469151675701,Above Knee
/data2/image_attributes/data/myntra_data/dresses/dresses_images/2285329.jpg,Knee Length,0.735977768898,Above Knee
/data2/image_attributes/data/myntra_data/dresses/dresses_images/1907931.jpg,Above Knee,0.682558059692,Above Knee
/data2/image_attributes/data/myntra_data/dresses/dresses_images/2087748.jpg,Knee Length,0.211495712399,Above Knee
/data2/image_attributes/data/myntra_data/dresses/dresses_images/541513.jpg,Above Knee,0.77749311924,Above Knee
/data2/image_attributes/data/myntra_data/dresses/dresses_images/338155.jpg,Maxi,0.496783018112,Above Knee
/data2/image_attributes/data/myntra_data/dresses/dresses_images/589531.jpg,Maxi,0.70104598999,Above Knee
/data2/image_attributes/data/myntra_data/dresses/dresses_images/1258333.jpg,Above Knee,0.722761750221,Above Knee
/data2/image_attributes/data/myntra_data/dresses/dresses_images/619122.jpg,Maxi,0.77346777916,Above Knee
/data2/image_attributes/data/myntra_data/dresses/dresses_images/2321728.jpg,Above Knee,0.555777132511,Above Knee
/data2/image_attributes/data/myntra_data/dresses/dresses_images/542372.jpg,Maxi,0.520244956017,Above Knee
/data2/image_attributes/data/myntra_data/dresses/dresses_images/882446.jpg,Midi,0.491819351912,Above Knee
/data2/image_attributes/data/myntra_data/dresses/dresses_images/2199836.jpg,Knee Length,0.732743144035,Above Knee
/data2/image_attributes/data/myntra_data/dresses/dresses_images/1374017.jpg,Maxi,0.536835670471,Above Knee
/data2/image_attributes/data/myntra_data/dresses/dresses_images/1657727.jpg,Maxi,0.508395552635,Above Knee
/data2/image_attributes/data/myntra_data/dresses/dresses_images/1577657.jpg,Maxi,0.410606622696,Above Knee
/data2/image_attributes/data/myntra_data/dresses/dresses_images/358579.jpg,Maxi,0.728508710861,Above Knee
/data2/image_attributes/data/myntra_data/dresses/dresses_images/2200179.jpg,Above Knee,0.546078562737,Above Knee
/data2/image_attributes/data/myntra_data/dresses/dresses_images/892687.jpg,Above Knee,0.585018575191,Above Knee
/data2/image_attributes/data/myntra_data/dresses/dresses_images/118865.jpg,Knee Length,0.759436607361,Above Knee
/data2/image_attributes/data/myntra_data/dresses/dresses_images/1735171.jpg,Midi,0.744792342186,Above Knee
/data2/image_attributes/data/myntra_data/dresses/dresses_images/127400.jpg,Knee Length,0.514708518982,Above Knee
/data2/image_attributes/data/myntra_data/dresses/dresses_images/1643726.jpg,Knee Length,0.3954205513,Knee Length
/data2/image_attributes/data/myntra_data/dresses/dresses_images/497672.jpg,Knee Length,0.651401340961,Knee Length
/data2/image_attributes/data/myntra_data/dresses/dresses_images/1834949.jpg,Knee Length,0.647654354572,Knee Length
/data2/image_attributes/data/myntra_data/dresses/dresses_images/1888310.jpg,Maxi,0.276300638914,Knee Length
/data2/image_attributes/data/myntra_data/dresses/dresses_images/1302857.jpg,Knee Length,0.789534330368,Knee Length
/data2/image_attributes/data/myntra_data/dresses/dresses_images/2290608.jpg,Midi,0.758062958717,Knee Length
/data2/image_attributes/data/myntra_data/dresses/dresses_images/2231652.jpg,Above Knee,0.798216223717,Knee Length
/data2/image_attributes/data/myntra_data/dresses/dresses_images/1834931.jpg,Knee Length,0.466320633888,Knee Length
/data2/image_attributes/data/myntra_data/dresses/dresses_images/1255150.jpg,Maxi,0.506724834442,Knee Length
/data2/image_attributes/data/myntra_data/dresses/dresses_images/410966.jpg,Knee Length,0.500196218491,Knee Length
/data2/image_attributes/data/myntra_data/dresses/dresses_images/1988106.jpg,Maxi,0.39136582613,Knee Length
/data2/image_attributes/data/myntra_data/dresses/dresses_images/484653.jpg,Knee Length,0.603628754616,Knee Length
/data2/image_attributes/data/myntra_data/dresses/dresses_images/2139256.jpg,Knee Length,0.672801613808,Knee Length
/data2/image_attributes/data/myntra_data/dresses/dresses_images/467462.jpg,Midi,0.687386155128,Knee Length
/data2/image_attributes/data/myntra_data/dresses/dresses_images/2200157.jpg,Above Knee,0.702298283577,Knee Length
/data2/image_attributes/data/myntra_data/dresses/dresses_images/1835103.jpg,Maxi,0.517864704132,Knee Length
/data2/image_attributes/data/myntra_data/dresses/dresses_images/2221198.jpg,Midi,0.739248394966,Knee Length
/data2/image_attributes/data/myntra_data/dresses/dresses_images/695820.jpg,Knee Length,0.391396701336,Knee Length
/data2/image_attributes/data/myntra_data/dresses/dresses_images/2095471.jpg,Knee Length,0.748234689236,Knee Length
/data2/image_attributes/data/myntra_data/dresses/dresses_images/552681.jpg,Knee Length,0.709121525288,Knee Length
/data2/image_attributes/data/myntra_data/dresses/dresses_images/1219034.jpg,Maxi,0.731029987335,Knee Length
/data2/image_attributes/data/myntra_data/dresses/dresses_images/1477867.jpg,Maxi,0.683087348938,Knee Length
/data2/image_attributes/data/myntra_data/dresses/dresses_images/2139250.jpg,Knee Length,0.277300477028,Knee Length
/data2/image_attributes/data/myntra_data/dresses/dresses_images/1705076.jpg,Knee Length,0.509775817394,Knee Length
/data2/image_attributes/data/myntra_data/dresses/dresses_images/763146.jpg,Above Knee,0.765805363655,Knee Length
/data2/image_attributes/data/myntra_data/dresses/dresses_images/541514.jpg,Knee Length,0.298931360245,Knee Length
/data2/image_attributes/data/myntra_data/dresses/dresses_images/1778295.jpg,Knee Length,0.551182091236,Knee Length
/data2/image_attributes/data/myntra_data/dresses/dresses_images/247211.jpg,Midi,0.795380830765,Knee Length
/data2/image_attributes/data/myntra_data/dresses/dresses_images/794281.jpg,Knee Length,0.476890206337,Knee Length
/data2/image_attributes/data/myntra_data/dresses/dresses_images/2074837.jpg,Knee Length,0.400228381157,Knee Length
/data2/image_attributes/data/myntra_data/dresses/dresses_images/1538351.jpg,Knee Length,0.581535518169,Knee Length
/data2/image_attributes/data/myntra_data/dresses/dresses_images/1685976.jpg,Knee Length,0.759179055691,Knee Length
/data2/image_attributes/data/myntra_data/dresses/dresses_images/1685974.jpg,Knee Length,0.759179055691,Knee Length
/data2/image_attributes/data/myntra_data/dresses/dresses_images/2098925.jpg,Knee Length,0.642517149448,Knee Length
/data2/image_attributes/data/myntra_data/dresses/dresses_images/1098848.jpg,Midi,0.647127389908,Knee Length
/data2/image_attributes/data/myntra_data/dresses/dresses_images/2209477.jpg,Midi,0.326710194349,Knee Length
/data2/image_attributes/data/myntra_data/dresses/dresses_images/2141819.jpg,Midi,0.571208834648,Knee Length
/data2/image_attributes/data/myntra_data/dresses/dresses_images/1833755.jpg,Knee Length,0.689958274364,Knee Length
/data2/image_attributes/data/myntra_data/dresses/dresses_images/694157.jpg,Maxi,0.428550213575,Knee Length
/data2/image_attributes/data/myntra_data/dresses/dresses_images/1158088.jpg,Knee Length,0.680111587048,Knee Length
/data2/image_attributes/data/myntra_data/dresses/dresses_images/2024190.jpg,Midi,0.669180035591,Knee Length
/data2/image_attributes/data/myntra_data/dresses/dresses_images/1912621.jpg,Maxi,0.714186668396,Knee Length
/data2/image_attributes/data/myntra_data/dresses/dresses_images/1577668.jpg,Above Knee,0.66274702549,Knee Length
/data2/image_attributes/data/myntra_data/dresses/dresses_images/554804.jpg,Knee Length,0.461803555489,Knee Length
/data2/image_attributes/data/myntra_data/dresses/dresses_images/1834788.jpg,Above Knee,0.711782217026,Knee Length
/data2/image_attributes/data/myntra_data/dresses/dresses_images/2139243.jpg,Knee Length,0.275606691837,Knee Length
/data2/image_attributes/data/myntra_data/dresses/dresses_images/1380242.jpg,Midi,0.511877417564,Knee Length
/data2/image_attributes/data/myntra_data/dresses/dresses_images/504537.jpg,Maxi,0.442995548248,Knee Length
/data2/image_attributes/data/myntra_data/dresses/dresses_images/1349195.jpg,Knee Length,0.529835581779,Knee Length
/data2/image_attributes/data/myntra_data/dresses/dresses_images/483281.jpg,Midi,0.713858008385,Knee Length
/data2/image_attributes/data/myntra_data/dresses/dresses_images/542396.jpg,Above Knee,0.632677316666,Knee Length
/data2/image_attributes/data/myntra_data/dresses/dresses_images/1873101.jpg,Maxi,0.555426716805,Knee Length
/data2/image_attributes/data/myntra_data/dresses/dresses_images/1144443.jpg,Knee Length,0.537129104137,Knee Length
/data2/image_attributes/data/myntra_data/dresses/dresses_images/2209476.jpg,Midi,0.326710194349,Knee Length
/data2/image_attributes/data/myntra_data/dresses/dresses_images/2209480.jpg,Midi,0.326710194349,Knee Length
/data2/image_attributes/data/myntra_data/dresses/dresses_images/1975730.jpg,Above Knee,0.570333123207,Knee Length
/data2/image_attributes/data/myntra_data/dresses/dresses_images/1059001.jpg,Knee Length,0.543372809887,Knee Length
/data2/image_attributes/data/myntra_data/dresses/dresses_images/422781.jpg,Above Knee,0.505084097385,Midi
/data2/image_attributes/data/myntra_data/dresses/dresses_images/1906069.jpg,Above Knee,0.785138249397,Midi
/data2/image_attributes/data/myntra_data/dresses/dresses_images/2139253.jpg,Midi,0.38795337081,Midi
/data2/image_attributes/data/myntra_data/dresses/dresses_images/2199837.jpg,Knee Length,0.619812309742,Midi
/data2/image_attributes/data/myntra_data/dresses/dresses_images/1833730.jpg,Knee Length,0.607598245144,Midi
/data2/image_attributes/data/myntra_data/dresses/dresses_images/2250719.jpg,Maxi,0.532867372036,Midi
/data2/image_attributes/data/myntra_data/dresses/dresses_images/1001501.jpg,Knee Length,0.779127955437,Midi
/data2/image_attributes/data/myntra_data/dresses/dresses_images/655286.jpg,Midi,0.744136691093,Midi
/data2/image_attributes/data/myntra_data/dresses/dresses_images/2250704.jpg,Knee Length,0.781166017056,Midi
/data2/image_attributes/data/myntra_data/dresses/dresses_images/1415189.jpg,Above Knee,0.515339791775,Midi
/data2/image_attributes/data/myntra_data/dresses/dresses_images/721580.jpg,Knee Length,0.521650671959,Midi
/data2/image_attributes/data/myntra_data/dresses/dresses_images/1504316.jpg,Knee Length,0.786019265652,Midi
/data2/image_attributes/data/myntra_data/dresses/dresses_images/1990674.jpg,Maxi,0.597758293152,Midi
/data2/image_attributes/data/myntra_data/dresses/dresses_images/1834973.jpg,Maxi,0.68727350235,Midi
/data2/image_attributes/data/myntra_data/dresses/dresses_images/1834804.jpg,Above Knee,0.466890841722,Midi
/data2/image_attributes/data/myntra_data/dresses/dresses_images/2287363.jpg,Knee Length,0.791105806828,Midi
/data2/image_attributes/data/myntra_data/dresses/dresses_images/1224636.jpg,Midi,0.541238069534,Midi
/data2/image_attributes/data/myntra_data/dresses/dresses_images/2250766.jpg,Knee Length,0.532211482525,Midi
/data2/image_attributes/data/myntra_data/dresses/dresses_images/2342609.jpg,Maxi,0.526044905186,Midi
/data2/image_attributes/data/myntra_data/dresses/dresses_images/1469446.jpg,Midi,0.676362872124,Midi
/data2/image_attributes/data/myntra_data/dresses/dresses_images/849016.jpg,Knee Length,0.512273907661,Midi
/data2/image_attributes/data/myntra_data/dresses/dresses_images/1224635.jpg,Above Knee,0.735585927963,Midi
/data2/image_attributes/data/myntra_data/dresses/dresses_images/2084463.jpg,Midi,0.719142913818,Midi
/data2/image_attributes/data/myntra_data/dresses/dresses_images/217132.jpg,Maxi,0.364625573158,Midi
/data2/image_attributes/data/myntra_data/dresses/dresses_images/2250756.jpg,Maxi,0.628159999847,Midi
/data2/image_attributes/data/myntra_data/dresses/dresses_images/2285315.jpg,Knee Length,0.626730024815,Midi
/data2/image_attributes/data/myntra_data/dresses/dresses_images/1225685.jpg,Midi,0.621505737305,Midi
/data2/image_attributes/data/myntra_data/dresses/dresses_images/2299054.jpg,Midi,0.395948201418,Midi
/data2/image_attributes/data/myntra_data/dresses/dresses_images/1948941.jpg,Knee Length,0.785260617733,Midi
/data2/image_attributes/data/myntra_data/dresses/dresses_images/589507.jpg,Maxi,0.78742146492,Midi
/data2/image_attributes/data/myntra_data/dresses/dresses_images/2250733.jpg,Above Knee,0.547548949718,Midi
/data2/image_attributes/data/myntra_data/dresses/dresses_images/1652069.jpg,Above Knee,0.680089890957,Midi
/data2/image_attributes/data/myntra_data/dresses/dresses_images/2094643.jpg,Midi,0.781023263931,Midi
/data2/image_attributes/data/myntra_data/dresses/dresses_images/1217472.jpg,Knee Length,0.669657707214,Midi
/data2/image_attributes/data/myntra_data/dresses/dresses_images/2285318.jpg,Maxi,0.560212135315,Midi
/data2/image_attributes/data/myntra_data/dresses/dresses_images/655287.jpg,Knee Length,0.709735274315,Midi
/data2/image_attributes/data/myntra_data/dresses/dresses_images/2133657.jpg,Maxi,0.627826452255,Midi
/data2/image_attributes/data/myntra_data/dresses/dresses_images/1578820.jpg,Maxi,0.460905820131,Midi
/data2/image_attributes/data/myntra_data/dresses/dresses_images/2342625.jpg,Above Knee,0.227222815156,Midi
/data2/image_attributes/data/myntra_data/dresses/dresses_images/2250700.jpg,Knee Length,0.772355437279,Midi
/data2/image_attributes/data/myntra_data/dresses/dresses_images/2250694.jpg,Maxi,0.284244477749,Midi
/data2/image_attributes/data/myntra_data/dresses/dresses_images/295418.jpg,Maxi,0.699157238007,Midi
/data2/image_attributes/data/myntra_data/dresses/dresses_images/2285330.jpg,Knee Length,0.41838657856,Midi
/data2/image_attributes/data/myntra_data/dresses/dresses_images/1750906.jpg,Above Knee,0.437215954065,Midi
/data2/image_attributes/data/myntra_data/dresses/dresses_images/1156344.jpg,Maxi,0.77646291256,Midi
/data2/image_attributes/data/myntra_data/dresses/dresses_images/1504345.jpg,Midi,0.597252130508,Midi
/data2/image_attributes/data/myntra_data/dresses/dresses_images/566547.jpg,Knee Length,0.450454890728,Midi
/data2/image_attributes/data/myntra_data/dresses/dresses_images/1860300.jpg,Midi,0.698955655098,Midi
